[{"id":1,"email":"jkiefer0@posterous.com","password":"F94QVpNT5ha"},
{"id":2,"email":"mwix1@patch.com","password":"Qa67NmyAC9s"},
{"id":3,"email":"ofeatherston2@delicious.com","password":"dOkYX03D"},
{"id":4,"email":"iwhimper3@networksolutions.com","password":"SWDix2Tb"},
{"id":5,"email":"nparton4@freewebs.com","password":"B6j8GEkzwU"},
{"id":6,"email":"ggallymore5@fema.gov","password":"kuybBZFVe2"},
{"id":7,"email":"mrubertelli6@weibo.com","password":"3AajX5rEG"},
{"id":8,"email":"tmyles7@ox.ac.uk","password":"QnO5WX8rsX1V"},
{"id":9,"email":"creeves8@skype.com","password":"wNTHXnUxM9cT"},
{"id":10,"email":"rtomblings9@msu.edu","password":"xX6Fbt5R"},
{"id":11,"email":"cgoldsmitha@wiley.com","password":"CUTALCJl2T4"},
{"id":12,"email":"kvynallb@usatoday.com","password":"fFuof7rmLH"},
{"id":13,"email":"oturfreyc@bbb.org","password":"1adNbgL"},
{"id":14,"email":"obaldind@nsw.gov.au","password":"fX63ihnzoBR"},
{"id":15,"email":"rkisbye@google.cn","password":"QSajNNdm"},
{"id":16,"email":"agreiswoodf@google.nl","password":"9e5QAU"},
{"id":17,"email":"gmckeeverg@hibu.com","password":"QuNpT9JKbCx"},
{"id":18,"email":"mvedstrah@com.com","password":"QkucsLGgTBGD"},
{"id":19,"email":"pcrennani@dedecms.com","password":"xJlB65"},
{"id":20,"email":"ibrazierj@buzzfeed.com","password":"9Ji3G0NuO7"},
{"id":21,"email":"razemark@facebook.com","password":"0Ec3D1U1VXHv"},
{"id":22,"email":"btoppesl@soundcloud.com","password":"vQPRAHUfysYu"},
{"id":23,"email":"llunam@biblegateway.com","password":"HRTlzsYQW20Z"},
{"id":24,"email":"dbonifazion@nih.gov","password":"hiFg40zS"},
{"id":25,"email":"llabino@psu.edu","password":"sKv2U9zf"}]